{
    "KPlugin": {
        "Authors": [
            {
                "Name": "Hamish Rodda"
            }
        ], 
        "Category": "Core", 
        "Description": "This plugin provides a browsable model of the currently parsed classes and other items.", 
        "Description[ar]": "توفّر هذه الملحقة طرازًا قابلًا للتّصفّح للأصناف المحلّلة حاليًّا والعناصر الأخرى.", 
        "Description[ca]": "Aquest connector proporciona un model navegable de les classes analitzades actualment i altres elements.", 
        "Description[de]": "Dieses Modul bietet eine Liste der aktuell eingelesenen Klassen und anderer Elemente.", 
        "Description[en_GB]": "This plugin provides a browsable model of the currently parsed classes and other items.", 
        "Description[es]": "Este complemento proporciona un modelo navegable de las clases actualmente analizadas y de otros elementos.", 
        "Description[fi]": "Tämä liitännäinen tarjoaa selattavan mallin nykyisellään jäsennetyistä luokista ja muista kohteista.", 
        "Description[gl]": "Este complemento fornece un modelo navegábel das clases e outros elementos que estean procesados.", 
        "Description[it]": "Questa estensione fornisce un modello sfogliabile delle classi attualmente analizzate e altri elementi.", 
        "Description[nl]": "Deze plugin levert een model om door te bladeren van de nu ontlede klasse's en andere items.", 
        "Description[pl]": "Ta wtyczka udostępnia możliwy do przeglądania model przeanalizowanych klas i innych elementów.", 
        "Description[pt]": "Este 'plugin' oferece uma visão navegável sobre as classes e outros itens que estejam a ser processados de momento.", 
        "Description[pt_BR]": "Este plugin fornece um modelo navegável das classes atualmente analisadas e outros itens.", 
        "Description[sk]": "Tento plugin poskytuje prehliadateľný model aktuálne analyzovanej triedy a iných položiek.", 
        "Description[sl]": "Vstavek vgradi model trenutno razčlenjenih razredov in drugih predmetov, po katerih je mogoče brskati.", 
        "Description[sv]": "Insticksprogrammet tillhandahåller en bläddringsbar modell av klasser och andra objekt som för närvarande har tolkats.", 
        "Description[tr]": "Bu eklenti mevcut ayrıştırılmış sınıfların ve diğer öğelerin taranabilir bir modelini sağlar.", 
        "Description[uk]": "За допомогою цього додатка можна створити придатну для перегляду модель класів та інших елементів, над якими ви працюєте.", 
        "Description[x-test]": "xxThis plugin provides a browsable model of the currently parsed classes and other items.xx", 
        "Description[zh_CN]": "此插件提供了一个当前已分析类和其它项目的可浏览化视窗模型。", 
        "Icon": "code-class", 
        "Id": "kdevclassbrowser", 
        "License": "GPL", 
        "Name": "Class Browser", 
        "Name[ar]": "متصفّح الأصناف", 
        "Name[bg]": "Браузър за класове", 
        "Name[bs]": "Pregledač klasa", 
        "Name[ca@valencia]": "Navegador de classes", 
        "Name[ca]": "Navegador de classes", 
        "Name[cs]": "Prohlížeč tříd", 
        "Name[da]": "Klassebrowser", 
        "Name[de]": "Klassen-Browser", 
        "Name[el]": "Περιηγητής κλάσεων", 
        "Name[en_GB]": "Class Browser", 
        "Name[es]": "Navegador de clases", 
        "Name[et]": "Klassibrauser", 
        "Name[fi]": "Luokkaselain", 
        "Name[gl]": "Navegador de clases", 
        "Name[hu]": "Osztályböngésző", 
        "Name[it]": "Browser classi", 
        "Name[kk]": "Класс шолғышы", 
        "Name[nb]": "Klasseleser", 
        "Name[nds]": "Klassenkieker", 
        "Name[nl]": "Klassen-browser", 
        "Name[pl]": "Przeglądarka klas", 
        "Name[pt]": "Navegador de Classes", 
        "Name[pt_BR]": "Navegador de Classes", 
        "Name[ru]": "Дерево классов", 
        "Name[sk]": "Prehliadač tried", 
        "Name[sl]": "Brskalnik po razredih", 
        "Name[sv]": "Klassbläddrare", 
        "Name[tr]": "Sınıf Tarayıcı", 
        "Name[ug]": "تىپ كۆرگۈ", 
        "Name[uk]": "Переглядач класів", 
        "Name[x-test]": "xxClass Browserxx", 
        "Name[zh_CN]": "类浏览器", 
        "Name[zh_TW]": "類別瀏覽器", 
        "ServiceTypes": [
            "KDevelop/Plugin"
        ]
    }, 
    "X-KDevelop-Category": "Global", 
    "X-KDevelop-Mode": "GUI"
}